{
	"name": "Docker from Docker",
	"build": {
		"dockerfile": "Dockerfile",
	},
	"runArgs": [
		"--init"
	],
	"mounts": [
		"source=/var/run/docker.sock,target=/var/run/docker-host.sock,type=bind"
	],
	"overrideCommand": false,
	"remoteEnv": {
		"LOCAL_WORKSPACE_FOLDER": "${localWorkspaceFolder}"
	},
	"settings": {
		"terminal.integrated.shell.linux": "/bin/bash"
	},
	// Add the IDs of extensions you want installed when the container is created.
	"extensions": [
		"ms-azuretools.vscode-docker",
		"golang.go"
	],
	"remoteUser": "vscode"
}